# EESchema Netlist Version 1.1 created  Чтв 06 Мар 2014 17:24:27
(
 ( /50C8F68E $noname  R4 10K {Lib=R}
  (    1 N-000033 )
  (    2 N-000038 )
 )
 ( /50C8F44D $noname  R3 10K {Lib=R}
  (    1 N-000034 )
  (    2 N-000037 )
 )
 ( /5090D1B5 $noname  P4 CONN_5 {Lib=CONN_5}
  (    1 N-000038 )
  (    2 N-000034 )
  (    3 N-000029 )
  (    4 N-000035 )
  (    5 N-000016 )
 )
 ( /508D6DDB $noname  P3 CONN_2 {Lib=CONN_2}
  (    1 /VCC )
  (    2 /GND )
 )
 ( /508D5367 $noname  P1 CONN_5 {Lib=CONN_5}
  (    1 /VCC )
  (    2 /GND )
  (    3 N-000010 )
  (    4 N-000019 )
  (    5 N-000036 )
 )
 ( /508D4FD4 $noname  U2 MAX485 {Lib=MAX485}
  (    1 N-000029 )
  (    2 N-000037 )
  (    3 N-000033 )
  (    4 N-000035 )
  (    5 N-000038 )
  (    6 N-000031 )
  (    7 N-000023 )
  (    8 N-000034 )
 )
 ( /508A9FC0 $noname  J2 ARDUINO_MINI_PRO_(PARTIALY) {Lib=ARDUINO_MINI_PRO_(PARTIALY)}
  (    1 N-000028 )
  (    2 N-000024 )
  (    3 ? )
  (    4 ? )
  (    5 /FBx10 )
  (    6 N-000010 )
  (    7 N-000037 )
  (    8 N-000033 )
  (    9 /VCC )
  (   10 ? )
  (   11 ? )
  (   12 ? )
  (   13 N-000016 )
  (   14 N-000035 )
  (   15 N-000029 )
  (   16 N-000034 )
  (   17 N-000038 )
  (   18 ? )
  (   19 ? )
  (   20 ? )
  (   21 ? )
  (   22 /GND )
  (   23 N-000036 )
  (   24 N-000019 )
  (   25 N-000025 )
  (   28 N-000026 )
  (   29 N-000030 )
  (   30 N-000013 )
 )
 ( /508A8B45 $noname  J1 MC33926-CONN {Lib=MC33926-CONN}
  (    1 ? )
  (    2 /GND )
  (    3 /VCC )
  (    4 N-000028 )
  (    5 N-000024 )
  (    6 N-000013 )
  (    7 /GND )
  (    8 N-000030 )
  (    9 /FB )
  (   10 N-000026 )
 )
 ( /508A827A $noname  U1 LM358 {Lib=LM358}
  (    1 /FBx10 )
  (    2 N-000032 )
  (    3 /FB )
  (    4 /GND )
  (    8 /VCC )
 )
 ( /508A829E $noname  R1 220 {Lib=R}
  (    1 /GND )
  (    2 N-000032 )
 )
 ( /508A8290 $noname  R2 2K {Lib=R}
  (    1 N-000032 )
  (    2 /FBx10 )
 )
 ( /508A7EC3 $noname  P2 CONN_5X2 {Lib=CONN_5X2}
  (    1 /GND )
  (    2 ? )
  (    3 N-000025 )
  (    4 ? )
  (    5 N-000023 )
  (    6 ? )
  (    7 N-000031 )
  (    8 ? )
  (    9 N-000034 )
  (   10 N-000016 )
 )
)
*
{ Allowed footprints by component:
$component R4
 R?
 SM0603
 SM0805
 R?-*
 SM1206
$endlist
$component R3
 R?
 SM0603
 SM0805
 R?-*
 SM1206
$endlist
$component R1
 R?
 SM0603
 SM0805
 R?-*
 SM1206
$endlist
$component R2
 R?
 SM0603
 SM0805
 R?-*
 SM1206
$endlist
$endfootprintlist
}
{ Pin List by Nets
Net 10 "" ""
 J2 6
 P1 3
Net 13 "" ""
 J1 6
 J2 30
Net 16 "" ""
 P4 5
 P2 10
 J2 13
Net 17 "/GND" "GND"
 U1 4
 R1 1
 P2 1
 J1 2
 J1 7
 P3 2
 P1 2
 J2 22
Net 18 "/FBx10" "FBx10"
 J2 5
 R2 2
 U1 1
Net 19 "" ""
 J2 24
 P1 4
Net 21 "/FB" "FB"
 U1 3
 J1 9
Net 23 "" ""
 U2 7
 P2 5
Net 24 "" ""
 J2 2
 J1 5
Net 25 "" ""
 J2 25
 P2 3
Net 26 "" ""
 J2 28
 J1 10
Net 27 "/VCC" "VCC"
 P1 1
 P3 1
 J2 9
 J1 3
 U1 8
Net 28 "" ""
 J2 1
 J1 4
Net 29 "" ""
 U2 1
 P4 3
 J2 15
Net 30 "" ""
 J2 29
 J1 8
Net 31 "" ""
 U2 6
 P2 7
Net 32 "" ""
 R1 2
 U1 2
 R2 1
Net 33 "" ""
 R4 1
 J2 8
 U2 3
Net 34 "" ""
 U2 8
 P4 2
 R3 1
 J2 16
 P2 9
Net 35 "" ""
 U2 4
 P4 4
 J2 14
Net 36 "" ""
 J2 23
 P1 5
Net 37 "" ""
 J2 7
 U2 2
 R3 2
Net 38 "" ""
 P4 1
 U2 5
 R4 2
 J2 17
}
#End
