EESchema Schematic File Version 2  date Чтв 06 Мар 2014 17:23:46
LIBS:power
LIBS:device
LIBS:transistors
LIBS:conn
LIBS:linear
LIBS:regul
LIBS:74xx
LIBS:cmos4000
LIBS:adc-dac
LIBS:memory
LIBS:xilinx
LIBS:special
LIBS:microcontrollers
LIBS:dsp
LIBS:microchip
LIBS:analog_switches
LIBS:motorola
LIBS:texas
LIBS:intel
LIBS:audio
LIBS:interface
LIBS:digital-audio
LIBS:philips
LIBS:display
LIBS:cypress
LIBS:siliconi
LIBS:opto
LIBS:atmel
LIBS:contrib
LIBS:valves
LIBS:arduino_mini_pro
LIBS:interfaces-ext
LIBS:mc33926_conn
LIBS:motor-driver-rs485-cache
EELAYER 25  0
EELAYER END
$Descr A4 11700 8267
encoding utf-8
Sheet 1 1
Title "Motor driver (atmega328p based) with rs485"
Date "6 mar 2014"
Rev "2"
Comp "MSU, VMK, NDSiPU"
Comment1 ""
Comment2 "Goncharov Oleg"
Comment3 ""
Comment4 ""
$EndDescr
Wire Wire Line
	2600 1250 2450 1250
Connection ~ 4800 4350
Wire Wire Line
	4800 4550 4800 4350
Wire Wire Line
	6050 4450 6050 5150
Connection ~ 6150 4150
Wire Wire Line
	6150 4150 6150 3800
Wire Wire Line
	6150 3800 5700 3800
Connection ~ 4550 3300
Wire Wire Line
	4550 3200 4550 3700
Wire Wire Line
	4550 3700 4050 3700
Connection ~ 4250 3500
Wire Wire Line
	4050 3500 4250 3500
Wire Wire Line
	2550 3100 2400 3100
Connection ~ 6850 3300
Wire Wire Line
	6850 2750 6850 4150
Wire Wire Line
	6850 4150 6050 4150
Wire Wire Line
	6050 5150 4650 5150
Wire Wire Line
	5300 3000 5300 2250
Wire Wire Line
	5300 3000 2950 3000
Wire Wire Line
	2950 3000 2950 2400
Wire Wire Line
	2950 2400 2450 2400
Wire Wire Line
	3650 2150 3150 2150
Wire Wire Line
	3150 2150 3150 4250
Wire Wire Line
	3150 4250 4950 4250
Wire Wire Line
	2450 2600 2800 2600
Wire Wire Line
	5450 950  5450 1750
Wire Wire Line
	2450 1350 5250 1350
Wire Wire Line
	5250 1350 5250 1550
Wire Wire Line
	5450 950  2450 950 
Wire Wire Line
	6050 4250 6450 4250
Wire Wire Line
	4950 4150 4350 4150
Wire Wire Line
	3650 2350 3350 2350
Wire Wire Line
	10300 1750 10100 1750
Wire Wire Line
	9100 1650 8800 1650
Wire Wire Line
	4350 4150 4350 3200
Wire Wire Line
	6550 2650 6550 4350
Wire Wire Line
	6550 2650 6850 2650
Wire Wire Line
	5250 2350 6850 2350
Wire Wire Line
	6850 2450 6350 2450
Wire Wire Line
	2450 2800 2550 2800
Wire Wire Line
	4150 3200 4150 3400
Wire Wire Line
	9100 3050 9100 3150
Wire Wire Line
	9100 1850 9100 2550
Connection ~ 9100 2500
Wire Wire Line
	9250 2500 9100 2500
Wire Wire Line
	2450 1550 3650 1550
Wire Wire Line
	3650 1650 3400 1650
Wire Wire Line
	5450 1750 5250 1750
Wire Wire Line
	9500 1250 9500 1350
Wire Wire Line
	9500 2150 9500 2250
Wire Wire Line
	2600 1750 2450 1750
Wire Wire Line
	5250 2150 5350 2150
Wire Wire Line
	5350 2150 5350 3050
Wire Wire Line
	7650 2750 7650 3400
Wire Wire Line
	6850 2350 6850 2150
Wire Wire Line
	2450 2700 2550 2700
Wire Wire Line
	5250 2050 6350 2050
Wire Wire Line
	6350 2050 6350 2450
Wire Wire Line
	6850 2550 6450 2550
Wire Wire Line
	6450 2550 6450 4250
Wire Wire Line
	4250 3200 4250 4450
Wire Wire Line
	2450 1050 2600 1050
Wire Wire Line
	10200 1750 10200 2500
Wire Wire Line
	10200 2500 9750 2500
Connection ~ 10200 1750
Wire Wire Line
	2600 1650 2450 1650
Wire Wire Line
	4250 4450 4950 4450
Wire Wire Line
	6550 4350 6050 4350
Wire Wire Line
	2450 1450 3400 1450
Wire Wire Line
	3400 1450 3400 1650
Wire Wire Line
	2450 1150 5350 1150
Wire Wire Line
	5350 1150 5350 1650
Wire Wire Line
	5350 1650 5250 1650
Wire Wire Line
	3300 1950 3650 1950
Wire Wire Line
	3650 2050 2800 2050
Wire Wire Line
	2800 2050 2800 2600
Wire Wire Line
	5350 3050 2900 3050
Wire Wire Line
	2900 3050 2900 2500
Wire Wire Line
	2900 2500 2450 2500
Wire Wire Line
	4950 4350 3250 4350
Wire Wire Line
	3250 4350 3250 2250
Wire Wire Line
	3250 2250 3650 2250
Wire Wire Line
	5300 2250 5250 2250
Wire Wire Line
	4550 3300 6850 3300
Wire Wire Line
	2550 3300 2400 3300
Wire Wire Line
	7650 3400 4050 3400
Connection ~ 4150 3400
Wire Wire Line
	4050 3600 4350 3600
Connection ~ 4350 3600
Wire Wire Line
	4050 3800 4650 3800
Connection ~ 4650 3800
Wire Wire Line
	5200 3800 4800 3800
Wire Wire Line
	4800 3800 4800 4250
Connection ~ 4800 4250
Wire Wire Line
	4650 5150 4650 3200
Wire Wire Line
	4800 5050 4800 5150
Connection ~ 4800 5150
Text Label 2600 1250 0    60   ~ 0
GND
$Comp
L R R4
U 1 1 50C8F68E
P 4800 4800
F 0 "R4" V 4880 4800 50  0000 C CNN
F 1 "10K" V 4800 4800 50  0000 C CNN
	1    4800 4800
	1    0    0    -1  
$EndComp
$Comp
L R R3
U 1 1 50C8F44D
P 5450 3800
F 0 "R3" V 5530 3800 50  0000 C CNN
F 1 "10K" V 5450 3800 50  0000 C CNN
	1    5450 3800
	0    1    1    0   
$EndComp
$Comp
L CONN_5 P4
U 1 1 5090D1B5
P 3650 3600
F 0 "P4" V 3600 3600 50  0000 C CNN
F 1 "CONN_5" V 3700 3600 50  0000 C CNN
	1    3650 3600
	-1   0    0    1   
$EndComp
Text Label 2550 3100 0    60   ~ 0
GND
Text Label 2550 3300 0    60   ~ 0
VCC
$Comp
L CONN_2 P3
U 1 1 508D6DDB
P 2050 3200
F 0 "P3" V 2000 3200 40  0000 C CNN
F 1 "CONN_2" V 2100 3200 40  0000 C CNN
	1    2050 3200
	-1   0    0    1   
$EndComp
$Comp
L CONN_5 P1
U 1 1 508D5367
P 2050 2600
F 0 "P1" V 2000 2600 50  0000 C CNN
F 1 "CONN_5" V 2100 2600 50  0000 C CNN
	1    2050 2600
	-1   0    0    1   
$EndComp
Text Label 3300 1950 0    60   ~ 0
FBx10
Text Label 2600 1650 0    60   ~ 0
VCC
Text Label 10300 1750 0    60   ~ 0
FBx10
Text Label 8800 1650 0    60   ~ 0
FB
Text Label 2600 1050 0    60   ~ 0
FB
NoConn ~ 5250 2650
NoConn ~ 5250 2550
$Comp
L MAX485 U2
U 1 1 508D4FD4
P 5500 4300
F 0 "U2" H 5500 4550 60  0000 C CNN
F 1 "MAX485" V 5500 4300 60  0000 C CNN
	1    5500 4300
	1    0    0    -1  
$EndComp
NoConn ~ 4750 3200
NoConn ~ 7650 2350
NoConn ~ 5250 2450
NoConn ~ 7650 2650
NoConn ~ 7650 2550
NoConn ~ 7650 2450
NoConn ~ 1750 450 
$Comp
L ARDUINO_MINI_PRO_(PARTIALY) J2
U 1 1 508A9FC0
P 4450 1300
F 0 "J2" H 4450 1300 60  0000 C CNN
F 1 "ARDUINO_MINI_PRO_(PARTIALY)" V 4450 450 60  0000 C CNN
	1    4450 1300
	1    0    0    -1  
$EndComp
$Comp
L MC33926-CONN J1
U 1 1 508A8B45
P 1950 2050
F 0 "J1" H 1950 2000 60  0000 C CNN
F 1 "MC33926-CONN" V 2050 1400 60  0000 C CNN
	1    1950 2050
	-1   0    0    1   
$EndComp
Text Label 2550 2800 0    60   ~ 0
VCC
Text Label 9100 3150 0    60   ~ 0
GND
Text Label 9500 2250 0    60   ~ 0
GND
Text Label 2600 1750 0    60   ~ 0
GND
Text Label 2550 2700 0    60   ~ 0
GND
Text Label 3350 2350 0    60   ~ 0
VCC
Text Label 9500 1250 0    60   ~ 0
VCC
NoConn ~ 2450 1850
NoConn ~ 3650 2650
NoConn ~ 3650 2550
NoConn ~ 3650 2450
NoConn ~ 3650 1750
NoConn ~ 3650 1850
Text Label 6850 2150 0    60   ~ 0
GND
$Comp
L LM358 U1
U 1 1 508A827A
P 9600 1750
F 0 "U1" H 9550 1950 60  0000 L CNN
F 1 "LM358" H 9550 1500 60  0000 L CNN
	1    9600 1750
	1    0    0    -1  
$EndComp
$Comp
L R R1
U 1 1 508A829E
P 9100 2800
F 0 "R1" V 9180 2800 50  0000 C CNN
F 1 "220" V 9100 2800 50  0000 C CNN
	1    9100 2800
	-1   0    0    1   
$EndComp
$Comp
L R R2
U 1 1 508A8290
P 9500 2500
F 0 "R2" V 9580 2500 50  0000 C CNN
F 1 "2K" V 9500 2500 50  0000 C CNN
	1    9500 2500
	0    -1   -1   0   
$EndComp
$Comp
L CONN_5X2 P2
U 1 1 508A7EC3
P 7250 2550
F 0 "P2" H 7250 2850 60  0000 C CNN
F 1 "CONN_5X2" V 7250 2550 50  0000 C CNN
	1    7250 2550
	1    0    0    -1  
$EndComp
$EndSCHEMATC
