PCBNEW-LibModule-V1  Вск 28 Окт 2012 20:31:15
$INDEX
ARDUINO_MINI_PRO_PARTIALY_CONN
ARDUINO_MINI_PRO_PARTIALY_CONN-2
ARDUINO_MINI_PRO_PARTIALY_CONN-3
$EndINDEX
$MODULE ARDUINO_MINI_PRO_PARTIALY_CONN
Po 0 0 0 15 508A94C9 508A96E4 ~~
Li ARDUINO_MINI_PRO_PARTIALY_CONN
Sc 508A96E4
AR
Op 0 0 0
T0 500 -6000 600 600 0 120 N V 21 N"ARDUINO_MINI_PRO_PARTIALY_CONN"
T1 0 0 600 600 0 120 N V 21 N"VAL**"
DS -5500 -4500 7500 -4500 150 21
DS 7500 -4500 7500 2500 150 21
DS 7500 2500 -5500 2500 150 21
DS -5500 2500 -5500 -4500 150 21
$PAD
Sh "1" R 600 600 0 0 0
Dr 320 0 0
At STD N 00E0FFFF
Ne 0 ""
Po 7000 -4000
$EndPAD
$PAD
Sh "2" C 600 600 0 0 0
Dr 320 0 0
At STD N 00E0FFFF
Ne 0 ""
Po 6000 -4000
$EndPAD
$PAD
Sh "3" C 600 600 0 0 0
Dr 320 0 0
At STD N 00E0FFFF
Ne 0 ""
Po 5000 -4000
$EndPAD
$PAD
Sh "4" C 600 600 0 0 0
Dr 320 0 0
At STD N 00E0FFFF
Ne 0 ""
Po 4000 -4000
$EndPAD
$PAD
Sh "5" C 600 600 0 0 0
Dr 320 0 0
At STD N 00E0FFFF
Ne 0 ""
Po 3000 -4000
$EndPAD
$PAD
Sh "6" C 600 600 0 0 0
Dr 320 0 0
At STD N 00E0FFFF
Ne 0 ""
Po 2000 -4000
$EndPAD
$PAD
Sh "7" C 600 600 0 0 0
Dr 320 0 0
At STD N 00E0FFFF
Ne 0 ""
Po 1000 -4000
$EndPAD
$PAD
Sh "8" C 600 600 0 0 0
Dr 320 0 0
At STD N 00E0FFFF
Ne 0 ""
Po 0 -4000
$EndPAD
$PAD
Sh "9" C 600 600 0 0 0
Dr 320 0 0
At STD N 00E0FFFF
Ne 0 ""
Po -1000 -4000
$EndPAD
$PAD
Sh "10" C 600 600 0 0 0
Dr 320 0 0
At STD N 00E0FFFF
Ne 0 ""
Po -2000 -4000
$EndPAD
$PAD
Sh "11" C 600 600 0 0 0
Dr 320 0 0
At STD N 00E0FFFF
Ne 0 ""
Po -3000 -4000
$EndPAD
$PAD
Sh "12" C 600 600 0 0 0
Dr 320 0 0
At STD N 00E0FFFF
Ne 0 ""
Po -4000 -4000
$EndPAD
$PAD
Sh "16" C 600 600 0 0 0
Dr 320 0 0
At STD N 00E0FFFF
Ne 0 ""
Po -5000 -500
$EndPAD
$PAD
Sh "17" C 600 600 0 0 0
Dr 320 0 0
At STD N 00E0FFFF
Ne 0 ""
Po -5000 500
$EndPAD
$PAD
Sh "18" C 600 600 0 0 0
Dr 320 0 0
At STD N 00E0FFFF
Ne 0 ""
Po -5000 1500
$EndPAD
$PAD
Sh "19" C 600 600 0 0 0
Dr 320 0 0
At STD N 00E0FFFF
Ne 0 ""
Po -4000 2000
$EndPAD
$PAD
Sh "20" C 600 600 0 0 0
Dr 320 0 0
At STD N 00E0FFFF
Ne 0 ""
Po -3000 2000
$EndPAD
$PAD
Sh "21" C 600 600 0 0 0
Dr 320 0 0
At STD N 00E0FFFF
Ne 0 ""
Po -2000 2000
$EndPAD
$PAD
Sh "23" C 600 600 0 0 0
Dr 320 0 0
At STD N 00E0FFFF
Ne 0 ""
Po 0 2000
$EndPAD
$PAD
Sh "24" C 600 600 0 0 0
Dr 320 0 0
At STD N 00E0FFFF
Ne 0 ""
Po 1000 2000
$EndPAD
$PAD
Sh "28" C 600 600 0 0 0
Dr 320 0 0
At STD N 00E0FFFF
Ne 0 ""
Po 5000 2000
$EndPAD
$PAD
Sh "29" C 600 600 0 0 0
Dr 320 0 0
At STD N 00E0FFFF
Ne 0 ""
Po 6000 2000
$EndPAD
$PAD
Sh "30" C 600 600 0 0 0
Dr 320 0 0
At STD N 00E0FFFF
Ne 0 ""
Po 7000 2000
$EndPAD
$EndMODULE  ARDUINO_MINI_PRO_PARTIALY_CONN
$MODULE ARDUINO_MINI_PRO_PARTIALY_CONN-2
Po 0 0 0 15 508C0CA3 00000000 ~~
Li ARDUINO_MINI_PRO_PARTIALY_CONN-2
Cd Arduino Mini Pro Connector 2 variant
Sc 00000000
AR
Op 0 0 0
T0 1000 -1500 350 350 0 75 N V 21 N"ARDUINO_MINI_PRO_PARTIALY_CONN-2"
T1 0 0 600 600 0 120 N V 21 N"VAL**"
DS -5500 -4500 7500 -4500 150 21
DS 7500 -4500 7500 2500 150 21
DS 7500 2500 -5500 2500 150 21
DS -5500 2500 -5500 -4500 150 21
$PAD
Sh "1" R 600 600 0 0 0
Dr 320 0 0
At STD N 00E0FFFF
Ne 0 ""
Po 7000 -4000
$EndPAD
$PAD
Sh "2" C 600 600 0 0 0
Dr 320 0 0
At STD N 00E0FFFF
Ne 0 ""
Po 6000 -4000
$EndPAD
$PAD
Sh "3" C 600 600 0 0 0
Dr 320 0 0
At STD N 00E0FFFF
Ne 0 ""
Po 5000 -4000
$EndPAD
$PAD
Sh "4" C 600 600 0 0 0
Dr 320 0 0
At STD N 00E0FFFF
Ne 0 ""
Po 4000 -4000
$EndPAD
$PAD
Sh "5" C 600 600 0 0 0
Dr 320 0 0
At STD N 00E0FFFF
Ne 0 ""
Po 3000 -4000
$EndPAD
$PAD
Sh "6" C 600 600 0 0 0
Dr 320 0 0
At STD N 00E0FFFF
Ne 0 ""
Po 2000 -4000
$EndPAD
$PAD
Sh "7" C 600 600 0 0 0
Dr 320 0 0
At STD N 00E0FFFF
Ne 0 ""
Po 1000 -4000
$EndPAD
$PAD
Sh "8" C 600 600 0 0 0
Dr 320 0 0
At STD N 00E0FFFF
Ne 0 ""
Po 0 -4000
$EndPAD
$PAD
Sh "9" C 600 600 0 0 0
Dr 320 0 0
At STD N 00E0FFFF
Ne 0 ""
Po -1000 -4000
$EndPAD
$PAD
Sh "10" C 600 600 0 0 0
Dr 320 0 0
At STD N 00E0FFFF
Ne 0 ""
Po -2000 -4000
$EndPAD
$PAD
Sh "11" C 600 600 0 0 0
Dr 320 0 0
At STD N 00E0FFFF
Ne 0 ""
Po -3000 -4000
$EndPAD
$PAD
Sh "12" C 600 600 0 0 0
Dr 320 0 0
At STD N 00E0FFFF
Ne 0 ""
Po -4000 -4000
$EndPAD
$PAD
Sh "14" C 600 600 0 0 0
Dr 320 0 0
At STD N 00E0FFFF
Ne 0 ""
Po -5000 -2500
$EndPAD
$PAD
Sh "15" C 600 600 0 0 0
Dr 320 0 0
At STD N 00E0FFFF
Ne 0 ""
Po -5000 -1500
$EndPAD
$PAD
Sh "19" C 600 600 0 0 0
Dr 320 0 0
At STD N 00E0FFFF
Ne 0 ""
Po -4000 2000
$EndPAD
$PAD
Sh "20" C 600 600 0 0 0
Dr 320 0 0
At STD N 00E0FFFF
Ne 0 ""
Po -3000 2000
$EndPAD
$PAD
Sh "23" C 600 600 0 0 0
Dr 320 0 0
At STD N 00E0FFFF
Ne 0 ""
Po 0 2000
$EndPAD
$PAD
Sh "24" C 600 600 0 0 0
Dr 320 0 0
At STD N 00E0FFFF
Ne 0 ""
Po 1000 2000
$EndPAD
$PAD
Sh "28" C 600 600 0 0 0
Dr 320 0 0
At STD N 00E0FFFF
Ne 0 ""
Po 5000 2000
$EndPAD
$PAD
Sh "29" C 600 600 0 0 0
Dr 320 0 0
At STD N 00E0FFFF
Ne 0 ""
Po 6000 2000
$EndPAD
$PAD
Sh "30" C 600 600 0 0 0
Dr 320 0 0
At STD N 00E0FFFF
Ne 0 ""
Po 7000 2000
$EndPAD
$PAD
Sh "25" C 600 600 0 0 0
Dr 320 0 0
At STD N 00E0FFFF
Ne 0 ""
Po 2000 2000
$EndPAD
$PAD
Sh "13" C 600 600 0 0 0
Dr 320 0 0
At STD N 00E0FFFF
Ne 0 ""
Po -5000 -3500
$EndPAD
$PAD
Sh "22" C 600 600 0 0 0
Dr 320 0 0
At STD N 00E0FFFF
Ne 0 ""
Po -1000 2000
$EndPAD
$EndMODULE  ARDUINO_MINI_PRO_PARTIALY_CONN-2
$MODULE ARDUINO_MINI_PRO_PARTIALY_CONN-3
Po 0 0 0 15 508D5DAC 00000000 ~~
Li ARDUINO_MINI_PRO_PARTIALY_CONN-3
Cd Arduino Mini Pro Connector 3 variant
Sc 00000000
AR 
Op 0 0 0
T0 1000 -1500 350 350 0 75 N V 21 N"ARDUINO_MINI_PRO_PARTIALY_CONN-3"
T1 0 0 600 600 0 120 N V 21 N"VAL**"
DS -5500 -4500 7500 -4500 150 21
DS 7500 -4500 7500 2500 150 21
DS 7500 2500 -5500 2500 150 21
DS -5500 2500 -5500 -4500 150 21
$PAD
Sh "1" R 600 600 0 0 0
Dr 320 0 0
At STD N 00E0FFFF
Ne 0 ""
Po 7000 -4000
$EndPAD
$PAD
Sh "2" C 600 600 0 0 0
Dr 320 0 0
At STD N 00E0FFFF
Ne 0 ""
Po 6000 -4000
$EndPAD
$PAD
Sh "3" C 600 600 0 0 0
Dr 320 0 0
At STD N 00E0FFFF
Ne 0 ""
Po 5000 -4000
$EndPAD
$PAD
Sh "4" C 600 600 0 0 0
Dr 320 0 0
At STD N 00E0FFFF
Ne 0 ""
Po 4000 -4000
$EndPAD
$PAD
Sh "5" C 600 600 0 0 0
Dr 320 0 0
At STD N 00E0FFFF
Ne 0 ""
Po 3000 -4000
$EndPAD
$PAD
Sh "6" C 600 600 0 0 0
Dr 320 0 0
At STD N 00E0FFFF
Ne 0 ""
Po 2000 -4000
$EndPAD
$PAD
Sh "7" C 600 600 0 0 0
Dr 320 0 0
At STD N 00E0FFFF
Ne 0 ""
Po 1000 -4000
$EndPAD
$PAD
Sh "8" C 600 600 0 0 0
Dr 320 0 0
At STD N 00E0FFFF
Ne 0 ""
Po 0 -4000
$EndPAD
$PAD
Sh "9" C 600 600 0 0 0
Dr 320 0 0
At STD N 00E0FFFF
Ne 0 ""
Po -1000 -4000
$EndPAD
$PAD
Sh "10" C 600 600 0 0 0
Dr 320 0 0
At STD N 00E0FFFF
Ne 0 ""
Po -2000 -4000
$EndPAD
$PAD
Sh "11" C 600 600 0 0 0
Dr 320 0 0
At STD N 00E0FFFF
Ne 0 ""
Po -3000 -4000
$EndPAD
$PAD
Sh "12" C 600 600 0 0 0
Dr 320 0 0
At STD N 00E0FFFF
Ne 0 ""
Po -4000 -4000
$EndPAD
$PAD
Sh "14" C 600 600 0 0 0
Dr 320 0 0
At STD N 00E0FFFF
Ne 0 ""
Po -5000 -2500
$EndPAD
$PAD
Sh "15" C 600 600 0 0 0
Dr 320 0 0
At STD N 00E0FFFF
Ne 0 ""
Po -5000 -1500
$EndPAD
$PAD
Sh "23" C 600 600 0 0 0
Dr 320 0 0
At STD N 00E0FFFF
Ne 0 ""
Po 0 2000
$EndPAD
$PAD
Sh "24" C 600 600 0 0 0
Dr 320 0 0
At STD N 00E0FFFF
Ne 0 ""
Po 1000 2000
$EndPAD
$PAD
Sh "28" C 600 600 0 0 0
Dr 320 0 0
At STD N 00E0FFFF
Ne 0 ""
Po 5000 2000
$EndPAD
$PAD
Sh "29" C 600 600 0 0 0
Dr 320 0 0
At STD N 00E0FFFF
Ne 0 ""
Po 6000 2000
$EndPAD
$PAD
Sh "30" C 600 600 0 0 0
Dr 320 0 0
At STD N 00E0FFFF
Ne 0 ""
Po 7000 2000
$EndPAD
$PAD
Sh "25" C 600 600 0 0 0
Dr 320 0 0
At STD N 00E0FFFF
Ne 0 ""
Po 2000 2000
$EndPAD
$PAD
Sh "13" C 600 600 0 0 0
Dr 320 0 0
At STD N 00E0FFFF
Ne 0 ""
Po -5000 -3500
$EndPAD
$PAD
Sh "22" C 600 600 0 0 0
Dr 320 0 0
At STD N 00E0FFFF
Ne 0 ""
Po -1000 2000
$EndPAD
$PAD
Sh "16" C 600 600 0 0 0
Dr 320 0 0
At STD N 00E0FFFF
Ne 0 ""
Po -5000 -500
$EndPAD
$PAD
Sh "17" C 600 600 0 0 0
Dr 320 0 0
At STD N 00E0FFFF
Ne 0 ""
Po -5000 500
$EndPAD
$EndMODULE  ARDUINO_MINI_PRO_PARTIALY_CONN-3
$EndLIBRARY
