PCBNEW-LibModule-V1  Птн 26 Окт 2012 18:46:09
$INDEX
MC33926-CONN
$EndINDEX
$MODULE MC33926-CONN
Po 0 0 0 15 508AA1A9 00000000 ~~
Li MC33926-CONN
Cd MC33926 H-brige board connector
Sc 00000000
AR 
Op 0 0 0
T0 5000 1000 600 600 900 120 N V 21 N"MC33926-CONN"
T1 1000 500 600 600 900 120 N V 21 N"VAL**"
DS 8500 4500 7500 4500 150 21
DS 7500 4500 7000 4500 150 21
DS 7000 4500 7000 -1000 150 21
DS 7000 -1000 8500 -1000 150 21
DS 8500 -1000 8500 4500 150 21
DC 8500 6000 9000 6000 150 21
DC 8500 -4000 9000 -4000 150 21
DC 8500 -4000 8500 -3500 150 21
DS -500 -5000 -500 7000 150 21
DS -500 7000 9500 7000 150 21
DS 9500 7000 9500 -5000 150 21
DS 9500 -5000 -500 -5000 150 21
$PAD
Sh "2" R 600 600 0 0 0
Dr 320 0 0
At STD N 00E0FFFF
Ne 0 ""
Po 0 -3500
$EndPAD
$PAD
Sh "3" C 600 600 0 0 0
Dr 320 0 0
At STD N 00E0FFFF
Ne 0 ""
Po 0 -2500
$EndPAD
$PAD
Sh "4" C 600 600 0 0 0
Dr 320 0 0
At STD N 00E0FFFF
Ne 0 ""
Po 0 -1500
$EndPAD
$PAD
Sh "5" C 600 600 0 0 0
Dr 320 0 0
At STD N 00E0FFFF
Ne 0 ""
Po 0 -500
$EndPAD
$PAD
Sh "6" C 600 600 0 0 0
Dr 320 0 0
At STD N 00E0FFFF
Ne 0 ""
Po 0 500
$EndPAD
$PAD
Sh "7" C 600 600 0 0 0
Dr 320 0 0
At STD N 00E0FFFF
Ne 0 ""
Po 0 1500
$EndPAD
$PAD
Sh "8" C 600 600 0 0 0
Dr 320 0 0
At STD N 00E0FFFF
Ne 0 ""
Po 0 2500
$EndPAD
$PAD
Sh "9" C 600 600 0 0 0
Dr 320 0 0
At STD N 00E0FFFF
Ne 0 ""
Po 0 3500
$EndPAD
$PAD
Sh "10" C 600 600 0 0 0
Dr 320 0 0
At STD N 00E0FFFF
Ne 0 ""
Po 0 4500
$EndPAD
$EndMODULE  MC33926-CONN
$EndLIBRARY
